struct fs {
        uint64_t magic;
        uint32_t nblocks;
        uint32_t clean;
        uint32_t nfree_inodes;
};

writing zeros after newfs:
0000000: 7366 3132 3165 7363 db03 0000 ffff ffff  sf121esc........
0000010: 7ecc 0600 0000 0000 0000 0000 0000 0000  ~...............

return from mkfs after writing newfs:
0000000: 7366 3132 3165 7363 db03 0000 ffff ffff  sf121esc........
0000010: 7ecc 0600                                ~...

fflush after:
0000000: 7366 3132 3165 7363 db03 0000 ffff ffff  sf121esc........
0000010: 7ecc 0600                                ~...

clean = 0xaabbccdd:
0000000: 7366 3132 3165 7363 db03 0000 ddcc bbaa  sf121esc........
0000010: 7ecc 0600                                ~...

nblocks = 0xCAFEBABE, nfree_inodes = 0xFEEBDAED:
0000000: 7366 3132 3165 7363 beba feca ddcc bbaa  sf121esc........
0000010: edda ebfe                                ....

nfree_inodes = 0xEFBEADDE:
0000000: 7366 3132 3165 7363 beba feca ddcc bbaa  sf121esc........
0000010: dead beef                                ....


